{
    "name": "root",
    "gauges": {
        "MLAgentsModel_MLAgentsBehaviour.Policy.Entropy.mean": {
            "value": 0.980502724647522,
            "min": 0.9372278451919556,
            "max": 0.980502724647522,
            "count": 28
        },
        "MLAgentsModel_MLAgentsBehaviour.Environment.EpisodeLength.mean": {
            "value": 25.645631067961165,
            "min": 24.76958525345622,
            "max": 32.611111111111114,
            "count": 28
        },
        "MLAgentsModel_MLAgentsBehaviour.Policy.ExtrinsicValueEstimate.mean": {
            "value": 6.348748207092285,
            "min": 5.988447189331055,
            "max": 8.134478569030762,
            "count": 28
        },
        "MLAgentsModel_MLAgentsBehaviour.Environment.CumulativeReward.mean": {
            "value": 7.321428571428571,
            "min": 6.926406926406926,
            "max": 10.0,
            "count": 28
        },
        "MLAgentsModel_MLAgentsBehaviour.Policy.ExtrinsicReward.mean": {
            "value": 7.321428571428571,
            "min": 6.926406926406926,
            "max": 10.0,
            "count": 28
        },
        "MLAgentsModel_MLAgentsBehaviour.IsTraining.mean": {
            "value": 1.0,
            "min": 1.0,
            "max": 1.0,
            "count": 28
        },
        "MLAgentsModel_MLAgentsBehaviour.Losses.ValueLoss.mean": {
            "value": 0.3707086443901062,
            "min": 0.18939611315727234,
            "max": 0.39486801624298096,
            "count": 13
        },
        "MLAgentsModel_MLAgentsBehaviour.Losses.PolicyLoss.mean": {
            "value": 0.09549979865550995,
            "min": 0.09106488525867462,
            "max": 0.10020744055509567,
            "count": 13
        },
        "MLAgentsModel_MLAgentsBehaviour.Policy.LearningRate.mean": {
            "value": 0.0002999641001224518,
            "min": 0.0002999641001224518,
            "max": 0.00029996494413353503,
            "count": 13
        }
    },
    "metadata": {
        "timer_format_version": "0.1.0",
        "start_time_seconds": "1603565599",
        "python_version": "3.7.9 (tags/v3.7.9:13c94747c7, Aug 17 2020, 18:58:18) [MSC v.1900 64 bit (AMD64)]",
        "command_line_arguments": "C:\\Users\\Les-Lee\\AppData\\Local\\Programs\\Python\\Python37\\Scripts\\mlagents-learn MLAgents/mlagents.yaml --run-id MLAgentsModel --train --resume",
        "mlagents_version": "0.16.0",
        "mlagents_envs_version": "0.16.0",
        "communication_protocol_version": "1.0.0",
        "tensorflow_version": "2.3.0",
        "end_time_seconds": "1603565741"
    },
    "total": 141.77162299999998,
    "count": 1,
    "self": 0.00047969999997121704,
    "children": {
        "run_training.setup": {
            "total": 0.009391700000000114,
            "count": 1,
            "self": 0.009391700000000114
        },
        "TrainerController.start_learning": {
            "total": 141.7617516,
            "count": 1,
            "self": 7.833519700000238,
            "children": {
                "TrainerController._reset_env": {
                    "total": 17.3432896,
                    "count": 1,
                    "self": 17.3432896
                },
                "TrainerController.advance": {
                    "total": 116.26184399999975,
                    "count": 14815,
                    "self": 0.16383239999981924,
                    "children": {
                        "env_step": {
                            "total": 116.09801159999994,
                            "count": 14815,
                            "self": 108.06904769999973,
                            "children": {
                                "SubprocessEnvManager._take_step": {
                                    "total": 7.8311765000002005,
                                    "count": 14815,
                                    "self": 0.4108699000006091,
                                    "children": {
                                        "NNPolicy.evaluate": {
                                            "total": 7.420306599999591,
                                            "count": 10191,
                                            "self": 7.420306599999591
                                        }
                                    }
                                },
                                "workers": {
                                    "total": 0.19778740000000994,
                                    "count": 14814,
                                    "self": 0.0,
                                    "children": {
                                        "worker_root": {
                                            "total": 123.54992460000067,
                                            "count": 14814,
                                            "is_parallel": true,
                                            "self": 56.51421930000002,
                                            "children": {
                                                "steps_from_proto": {
                                                    "total": 0.0005909000000023923,
                                                    "count": 1,
                                                    "is_parallel": true,
                                                    "self": 0.00011170000000149116,
                                                    "children": {
                                                        "_process_vector_observation": {
                                                            "total": 0.00047920000000090113,
                                                            "count": 2,
                                                            "is_parallel": true,
                                                            "self": 0.00047920000000090113
                                                        }
                                                    }
                                                },
                                                "UnityEnvironment.step": {
                                                    "total": 67.03511440000064,
                                                    "count": 14814,
                                                    "is_parallel": true,
                                                    "self": 1.7355433000016802,
                                                    "children": {
                                                        "UnityEnvironment._generate_step_input": {
                                                            "total": 1.864910999999335,
                                                            "count": 14814,
                                                            "is_parallel": true,
                                                            "self": 1.864910999999335
                                                        },
                                                        "communicator.exchange": {
                                                            "total": 59.26259489999927,
                                                            "count": 14814,
                                                            "is_parallel": true,
                                                            "self": 59.26259489999927
                                                        },
                                                        "steps_from_proto": {
                                                            "total": 4.172065200000343,
                                                            "count": 14814,
                                                            "is_parallel": true,
                                                            "self": 1.2202874999999977,
                                                            "children": {
                                                                "_process_vector_observation": {
                                                                    "total": 2.9517777000003456,
                                                                    "count": 29628,
                                                                    "is_parallel": true,
                                                                    "self": 2.9517777000003456
                                                                }
                                                            }
                                                        }
                                                    }
                                                }
                                            }
                                        }
                                    }
                                }
                            }
                        }
                    }
                },
                "trainer_threads": {
                    "total": 2.3999999996249244e-05,
                    "count": 1,
                    "self": 2.3999999996249244e-05,
                    "children": {
                        "thread_root": {
                            "total": 0.0,
                            "count": 0,
                            "is_parallel": true,
                            "self": 0.0,
                            "children": {
                                "trainer_advance": {
                                    "total": 122.43067320000098,
                                    "count": 42849,
                                    "is_parallel": true,
                                    "self": 1.3846060999982086,
                                    "children": {
                                        "process_trajectory": {
                                            "total": 95.05333500000278,
                                            "count": 42849,
                                            "is_parallel": true,
                                            "self": 95.05333500000278
                                        },
                                        "_update_policy": {
                                            "total": 25.992732099999994,
                                            "count": 13,
                                            "is_parallel": true,
                                            "self": 16.06962130000039,
                                            "children": {
                                                "PPOOptimizer.update": {
                                                    "total": 9.923110799999606,
                                                    "count": 7302,
                                                    "is_parallel": true,
                                                    "self": 9.923110799999606
                                                }
                                            }
                                        }
                                    }
                                }
                            }
                        }
                    }
                },
                "TrainerController._save_model": {
                    "total": 0.3230743000000018,
                    "count": 1,
                    "self": 0.3230743000000018
                }
            }
        }
    }
}